dplyr-example.utf8
…
.pull-right[

```
## # A tibble: 76 x 7
## # Groups:   model [38]
##    model        year     n hwy_mean hwy_sd cty_mean cty_sd
##    <chr>       <int> <int>    <dbl>  <dbl>    <dbl>  <dbl>
##  1 4runner 4wd  1999     4     19     1.41     15.2  0.5  
##  2 4runner 4wd  2008     2     18.5   2.12     15    1.41 
##  3 a4           1999     4     27.5   1.73     18.2  2.06 
##  4 a4           2008     3     29.3   2.08     19.7  1.53 
##  5 a4 quattro   1999     4     25.2   0.5      16.5  1.29 
##  6 a4 quattro   2008     4     26.2   1.5      17.8  2.22 
##  7 a6 quattro   1999     1     24    NA        15   NA    
##  8 a6 quattro   2008     2     24     1.41     16.5  0.707
##  9 altima       1999     2     28     1.41     20    1.41 
## 10 altima       2008     4     29     2.94     21    2.31 
## # ... with 66 more rows
```
…
